…
1.There are 465 distinct stations.

2.There are 468staion that are ADA compliant.

3.The proportion of station entrance/exits without vending allow entrance is 0.0979657

4.a code chunk is wrote to reformat the data so that the route number and route name are distinct

``` r
gather(NYC_Transit_data1, key = route_number, value = route_name, route1:route11)
```

    ## # A tibble: 20,548 x 10
    ##    line  station_name station_latitude station_longitu~ entry vending
    ##    <chr> <chr>                   <dbl>            <dbl> <lgl> <chr>  
    ##  1 4 Av~ 25th St                  40.7            -74.0 TRUE  YES    
    ##  2 4 Av~ 25th St                  40.7            -74.0 TRUE  YES    
    ##  3 4 Av~ 36th St                  40.7            -74.0 TRUE  YES    
    ##  4 4 Av~ 36th St                  40.7            -74.0 TRUE  YES    
    ##  5 4 Av~ 36th St                  40.7            -74.0 TRUE  YES    
    ##  6 4 Av~ 45th St                  40.6            -74.0 TRUE  YES    
    ##  7 4 Av~ 45th St                  40.6            -74.0 TRUE  YES    
    ##  8 4 Av~ 45th St                  40.6            -74.0 TRUE  YES    
    ##  9 4 Av~ 45th St                  40.6            -74.0 TRUE  YES    
    ## 10 4 Av~ 53rd St                  40.6            -74.0 TRUE  YES    
    ## # ... with 20,538 more rows, and 4 more variables: entrance_type <chr>,
    ## #   ada <lgl>, route_number <chr>, route_name <chr>
…
